salmon_survival • pssalmonsurvival
…
#create table with expected effects by scenario
sc.name <- rep(c("Pinniped predation", "Porpoise predation", "Seabird predation", "Spiny dogfish predation", "Hatchery Chinook competition", "Hatchery competition", "Wild pink & chum salmon competition", "Gelatinous zooplankton abundance", "Herring abundance"),2)
scenario.var <- c(rep("+20%", 9), rep("-20%", 9))
salmon.effect <- c(rep("Negative impacts on salmon", 8), rep("Positive impacts on salmon",1), rep("Positive impacts on salmon", 8), rep("Negative impacts on salmon",1))
scenario.effect <- dplyr::tibble(scenario_name=sc.name, scenario_var = scenario.var, salmon_effect = salmon.effect)

plot_ensemble_survival_scenarios_timeseries(ensemblenumbersagescenarios, salmongroups, scenario.effect)

## [1] 3

## [1] 3

## # A tibble: 16,275 × 23
##    model_ver Code  age_return year_sim scenario_name    scenario_var return_nums
##    <fct>     <chr>      <int>    <int> <chr>            <chr>              <dbl>
##  1 1         CDS            5     2016 Pinniped predat… -20%             108952.
##  2 1         CDS            5     2016 Porpoise predat… -20%             108968.
##  3 1         CDS            5     2016 Seabird predati… -20%             108967.
##  4 1         CDS            5     2016 Spiny dogfish p… -20%             108968.
##  5 1         CDS            5     2017 Pinniped predat… -20%              66620.
##  6 1         CDS            5     2017 Porpoise predat… -20%              66628.
##  7 1         CDS            5     2017 Seabird predati… -20%              66627.
##  8 1         CDS            5     2017 Spiny dogfish p… -20%              66628.
##  9 1         CDS            5     2018 Pinniped predat… -20%              21296.
## 10 1         CDS            5     2018 Porpoise predat… -20%              21301.
## # … with 16,265 more rows, and 16 more variables: Name <chr>, Long.Name <fct>,
## #   NumCohorts <int>, migiobox <dbl>, year_no <int>, age <int>, juv_nums <dbl>,
## #   years_away <int>, survival <dbl>, Year <fct>, max_year <int>,
## #   ret_year <dbl>, max_model <dbl>, min_model <dbl>, mean_model <dbl>,
## #   salmon_effect <chr>
…
