salmon_survival • pssalmonsurvival
…
Plot salmon survival for model ensemble, survival is defined as the proportion of age 1 salmon that survive to age 5, the cohort is lagged over time.

data("ensemblenumbersage")
data("salmongroups")
plotmodels <- c(1,6) # eliminated model versions 1 & 6

plot_ensemble_survival(ensemblenumbersage, salmongroups, plotmodels)

## [1] 2

## Warning: Removed 6 row(s) containing missing values (geom_path).
## Removed 6 row(s) containing missing values (geom_path).

## # A tibble: 3,906 × 14
##    model_ver Code  age_return year_sim return_nums Name     Long.Name NumCohorts
##    <fct>     <chr>      <int>    <int>       <dbl> <chr>    <chr>          <int>
##  1 2         CDS            5     2011       3238. Chinook… Chinook …          5
##  2 2         CDS            5     2012       3222. Chinook… Chinook …          5
##  3 2         CDS            5     2013       3217. Chinook… Chinook …          5
##  4 2         CDS            5     2014       3213. Chinook… Chinook …          5
##  5 2         CDS            5     2015      60901. Chinook… Chinook …          5
##  6 2         CDS            5     2016     176505. Chinook… Chinook …          5
##  7 2         CDS            5     2017     138388. Chinook… Chinook …          5
##  8 2         CDS            5     2018      61485. Chinook… Chinook …          5
##  9 2         CDS            5     2019      23724. Chinook… Chinook …          5
## 10 2         CDS            5     2020       8740. Chinook… Chinook …          5
## # … with 3,896 more rows, and 6 more variables: year_no <int>, age <int>,
## #   juv_nums <dbl>, years_away <int>, survival <dbl>, Year <dbl>
…
